{"email_pwd": "paketbox35", "email_user": "isystem.box.35@gmail.com", "db_host": "localhost","db_user": "root", "db_pwd": "123456", "db_database": "Paketbox" , "path_to_json_file" : "/var/www/html/paketbox_35/Code/main/static/exchange/state.json"}


